Date,Keywords,Notes / Marker,"Why did you visit the repository settings today? If there is a specific setting you are looking for, please list it here.","If you search for a specific setting, where (in which menu) do you expect to find it?","If you search for a specific setting, how do you expect it to work? Feel free to give a brief description of what you expect.","If you search(ed) for your setting, please list the menus that you opened, in order.",Did you make changes to the repository settings today?,Did you easily find the settings you were looking for?,Where did you expect to find the setting?,Where did you find it instead?,Are you satisfied with your repository settings in the current state?,Please elaborate on the changes you would still like to do to your repository settings?,Did you experience any moment of confusion when navigating the repository settings? Please elaborate.,When did you start using Forgejo or Codeberg?,Is there anything else you'd like to tell us about the repository settings?,
2024-10-05,"labels, notfound",,I wanted to add a label,Repository units -> Issues,I expect it to work the same as GitHub,"I first search 'Repository' (as it was general), then 'Repository Units | Issues' (as it was specific). Then I searched through all settings from top to bottom, as I could not find it.",No,Yes,,,Yes,,"Nope, if it is there, it seems in the right spot to me!",For more than a year,"I'd enjoy to be able to add and edit Issue labels, but I can live without it. 

Keep up the good work!",
2024-10-05,permissions,,Making this repository for my college so that everyone can get into open source,Basic functions should be infront visible and others can be inside the repository settings,I was trying to find the repository permissions. I tried making commit from another account but git said make sure you have proper permissions or this repository exists so was confused that it is about the permissions or specific problem with my git.,,No,Yes,,,Yes,,,For less than a month,,
2024-10-05,"danger, visibility",,"To change the visibility of my repository: ""Visibility"".","Under the ""Danger"" subgroup.",As a switch with a confirmation dialog.,None.,Yes,Yes,,,Yes,,No.,For one to three (1 to 3) months,"It's just a suggestion, but a search bar to seek any setting of a repository would be great. (Could also work on the account settings menu :) ).",
2024-10-05,"units, releases",,"I wanted to enable the ""releases"" tab on a repository.","If I search for enabling the releases tab on a repository, I would expect to find the setting within ""Repository"" rather than ""Repository units""","For enabling certain sections in a repository, I would expect the overall look and functionality to be the same, it is just the current placement location of those settings is confusing and affects my overall workflow.","1st Attempt:  Settings --> Repository
2nd Attempt (Located what I was looking for): Settings --> Repository Units --> Overvew",Yes,"Not easily, but I found it",Repository,Repository Units --> Overview,No,"I would move the location of where you can enable tabs such as releases, projects, package registry, etc to the repository tab rather than the ""Repository units"" tab.",I experienced a bit of confusion trying to locate where I can enable the releases tab.,For one to three (1 to 3) months,Not at this time.,
2024-10-05,"danger, delete",,Delete a repository I don't need anymore,In the settings,Delete the repository's files from your servers and ignore the fact that it has ever existed,1. Settings,No,Yes,In the settings,,Yes,,No,For less than a month,No,
2024-10-05,"actions, units, wiki, external",,To configure the 'Actions runner' for my self hosted Forgejo instances,N/A,For the Wiki I would expect the custom domain field to be placed in the repository settings.,"For Wiki:
=========
1. Settings
2. Wiki
3. Custom domain section",Yes,Yes,,,Yes,,"I mainly experience a confusion when I  try to navigate to the Repository settings.
Right below the 'Repository settings,' there's a 'Repository units' option. When I try to quickly access the Repository settings, I often end up clicking on 'Repository units' by mistake because the word 'Repository' catches my eye first, and I'm used to navigating settings quickly.",For less than a month,N/A,
2024-10-05,branches,ToDo: check if renaming default branch works from the branches menu outside of the settings.,renaming the default branch (apparently this isn't a thing you can do conveniently outside of github),Branches,"""rename branch"" button next to the default branch selector I guess, that's how github does it anyway, then you get a popup where you can enter a new name and it suggests ""main"" as it's a common one","general, branches",No,No,Branches,,Yes,,,More than one year ago,honestly less confusing than both github and gitlab,
2024-10-05,,,,In the one that may contain it? Can't answer this question without having the specific setting defined.,"Again, weird question. I'd like it to work the way the UI communicates it, I guess. A text field should change the associated value, a checkbox should enable the setting when checked and vice versa. And so on.",,No,Yes,,,Yes,,No.,More than one year ago,,
2024-10-05,topics,,Add tags to my project,Settings,"Under Settings, there is a section Tags",Settings > Tags,Yes,No,Under tags,,Yes,,"Yes: I wanted to add tags, for example ""C"" for programming language and ""Mathematics"" for the usage domain, but Tags seem to be something else in Codeberg than I understand them to be.",Three months to a year (3 to 12 months) ago,,
2024-10-05,"units, releases",,"I wanted to create a ""Releases"" page",,,"Tags, Overview, Repository Units",Yes,"Not easily, but I found it","Repository Units, under an existing subtab similar to ""Issues""","Repository Units, in the Overview section",Yes,,,Less than a month ago,,
2024-10-06,"danger, transfer, units, projects",,"* move a repository from an organization to a personal user account.
* looking at the setting up a push mirror to a GitHub repository","* still browsing around, not completly familiar yet",,,No,"Not easily, but I found it",,,Yes,,"I was looking for a way to enable projects for a repo the other day and took a minute before finding it in the units. Makes sense now, though.",Less than a month ago,,
2024-10-06,"visibility, avatar, units, releases",,Updating the avatar and looking for repository visibility settings but seems like they aren't available in Codeberg. I don't mind that!,,"I'd expect a list of matches popping up for my query, clicking on a match takes me to wherever that setting is located, perhaps with the setting I searched for being highlighted there temporarily. Kind of like how it works when you search for settings in android.",,Yes,Yes,,,Yes,,"One of the confusions I initially faced was finding the releases tab. It isn't enabled for new repositories by default and when I'd search online about it, they'd just tell me to click on the releases tab which didn't exist for my repo, but after a handful of minutes I did find the option to enable it in settings. The other confusion was about attaching pictures to a repository, when a picture is attached, it doesn't show up in the preview which made me feel like I was doing something incorrectly. But later I figured out that they just don't show up in the preview and you have to commit the changes to be able to then see the attached picture. Perhaps some room for improvement there ^^",Less than a month ago,,
2024-10-06,"danger, transfer",the idea to make suggestions sounds interesting,Move Repo to other Orga (to archive it) ,"Settings, first page bottom red buttons","It should ask me for a owner to move it, would be nice if it showed recent users and own orgas in a list to select",Repo -> Settings,Yes,Yes,,,Yes,,,More than one year ago,,
2024-10-06,rename,,I wanted to change the repo name.,"I didn't think about it, it was right in front of me, got lucky.","I rename the repo, the new name is used.",Didn't have to. Just clicked Settings.,Yes,Yes,,,Yes,,,More than one year ago,,
2024-10-06,"mirror, docs, hints",,To set up a push mirror to my own Forgejo instance,Repository,"I expect it to contain a link to a wiki page that tells me how to create access token and which permissions are required for all major forges, including other Forgejo instances.",Repository,Yes,Yes,,,Yes,,No,More than one year ago,,
2024-10-06,branches,,Changing the default branch of an old repo from master to main,Branches,"Choose a branch, make it the default",Branches,Yes,Yes,,,Yes,,,More than one year ago,,
2024-10-06,"units, actions",,I was looking for Actions,"I expected to see ""Actions"" submenu inside of ""Repository units""",,Repository -> Repository units -> Repository,Yes,Yes,,,Yes,,,More than one year ago,,
2024-10-06,"danger, archive","It is unclear to me what kind of options they expect here. Ideas, anyone?",Archive Repository,Repository,"It to archive the repository, making it read only",,Yes,Yes,,,No,I think there should be more options regarding repository archival.,,One to three (1 to 3) months ago,,
2024-10-06,"danger, delete",,Delete Repository,Repository Settings,I expect all data to be removed,,Yes,Yes,,,Yes,,,One to three (1 to 3) months ago,,
2024-10-06,"branch, branchprotection, topics, permissions, save",changelog generator hint,"I came to do the basic repository setup as branchs protection, topics, description, collaborators, erc.",,,,Yes,Yes,,,No,I think it would be nice to unify that you can change topics in settings as well.,It's weird that each section has it's own save button. In this case I was changing more settings at one page and wasn't sure if a button below takes in account changes made in sections above.,More than one year ago,It's probably not settings related but it would be nice that Forgejo would generate changelog based on conventional commits.,
2024-10-06,"units, releases",,"General interest about available options, and specifically about ways to enable ""releases"".",No special expectation. It just has to be logical to make it easier to rememberg.,Releases: some way to publish built artifacts.,"- Repository
- Repository units > found",Yes,Yes,,,Yes,,,Less than a month ago,I like them.,
2024-10-06,"meta, ci, token, woodpecker","ToDo: look at this again, don't quite understand it yet",the token to setup woodpecker,"it depends, if i don't find it I would search in each menu until finding it","I expect to find a little note or help text explaining how it works, with dangers or whatever associated showed as well",repository > implementation key,No,Yes,,,Yes,,"I don't know, its the first time I'm looking for this setting",Three months to a year (3 to 12 months) ago,"The box with the text inviting to this form is in English, howeve I have codeberg set up in spanish, I think it should be in spanish too",
2024-10-06,"danger, visibility",,Set my interview code challenge repo to private.,Security/Privacy,"I was liking for a ""privacy"" input label which should have a radio option input.","""Repository Settings"" opened immediately on settings click. Then scrolled to the bottom then back tot he top to find the ""Visibility"" setting.",Yes,Yes,,,Yes,,,One to three (1 to 3) months ago,,
2024-10-06,"danger, transfer",,I was just transferring the repo.,The first page. I've used Forgejo/Gitea before.,Probably like a fuzzy search.,Repository,Yes,Yes,,,Yes,,No.,One to three (1 to 3) months ago,No.,
2024-10-06,"mirror, push",,wanted to set up a push mirror to gitlab.postmarketos.org,Repository -> Mirror settings (but already knew it),"i search the first page (Repository), then i'll open the next page in the left navbar and after that the next page...",from top to buttom,Yes,Yes,,,Yes,,,More than one year ago,,
2024-10-06,"summary, units, packages",User wants to disable activity,Package repository (for docker),Repository/Repository Units,"Find the option, enable it, and then it should apply once you save the settings like all other settings.","Repository
Repository Units",Yes,Yes,,,Yes,,,One to three (1 to 3) months ago,"Option to disable ""Activity""",
2024-10-07,"trustmodel, docs",,"disable https cloning but not possible as user
force repo to untrust unsigned commit ",security ,be checked save,na,Yes,No,security ,,Yes,,some menu expand without warning on tablet it was confusing ,More than one year ago,add more clear how signature works it’s confusing as too technical an example could help ,
2024-10-07,merge,,Change default merge settings,"in the main ""repository"" menu",,,Yes,Yes,,,,,Repository vs. Repository units is confusing - unclear which parts belong to which section,More than one year ago,,
2024-10-07,"danger, delete",,Delete the fork I created for playing a bit,Bottom of the first page in some kind of danger zone where it'll warn a lot about doing irreversible actions,,,No,Yes,,,Yes,,"No, not this time",One to three (1 to 3) months ago,,
2024-10-07,mirror,,I am trying to update a mirror,"Mirror settings: under a ""mirror"" section on the left side (under ""Settings"")","Push and pull mirrors: exactly as how they work now. Push mirror: push changes from your current git server (i.e. Codeberg) to Server #2 (e.g. git.examplewebsite.com). Pull mirror: pull changes from Server #2 to your current git server whenever they happen, perhaps with a time interval for checks.",Settings (left side): Repository: scrolled down,No,Yes,,,Yes,,,More than one year ago,,
2024-10-07,,,"I'm just checking out the available settings, new account.",,,,Yes,Yes,,,Yes,,,Less than a month ago,,
2024-10-07,"danger, transfer",,Change ownership,Repository at bottom,Transfer repo to new owner,n/a,Yes,Yes,,,Yes,,n/a,More than one year ago,,
2024-10-07,webhook,Note: more properties during test delivery sounds interesting ToDo: Is webhook processing really cancelled when a push is interrupted like this? Shouldn't it fire the webhook in case the references are uploaded correctly?,Manually triggering a Webhook due to early CTRL-C press during `git push`,Webhooks section,I would love to have the ability to choose a specific branch when invoking a webhook `Test delivery`,"Webhooks, Branches",Yes,Yes,,,Yes,,,More than one year ago,,
2024-10-07,"issues, labels",Confirms an idea I had earlier (closing with label as reason),"I look for the settings of the issue labels, specifically if there is a way to use labels as close reason.",Settings->Issues->Labels,There is a categorized list of all valid labels. Each label has a checkbox whether it is a closing reason.,"Issues, Settings, Settings->Repository, Repository Units, Repository Units->Issues",No,No,Settings->Issues->Labels,,No,"The aforementioned setting (I look for the settings of the issue labels, specifically if there is a way to use labels as close reason.) doesn't seem to exist. Maybe it is not changable after project creation, because I remember to have set the labels at some point.",,One to three (1 to 3) months ago,,
2024-10-07,units,,"Adjusting repository units (issue tracker, pull requests etc.)",I was expecting repository units to be in the general settings menu.,-,-,Yes,Yes,,,Yes,,No,More than one year ago,-,
2024-10-08,security,ToDo: investigate later,SSH access issues,SSH & GPG Keys or something reklated to deployment,"Click on the menu, all options related to it are shown in the right column. Security or destructive options have to be under password protection",,Yes,Yes,,,Yes,,,More than one year ago,,
2024-10-08,"units, issues, pulls",,to remove the issues and pull requests tabs,"either in ""repository"" or ""repository units""",turn off a switch or uncheck a checkbox to turn off each tab,"repository units -> overview, scrolled down to the other sections",Yes,Yes,,,Yes,,"i thought that clicking on ""repository units"" would open the page straight away but it just expanded to show subsections. not too confusing though it's just not what i immediately expected",More than one year ago,,
2024-10-08,"danger, delete",,delete repository,main menu / on the first page after clicking settings,i confirm the deleting and it succeeds,,Yes,Yes,,,Yes,,no,Less than a month ago,it's good,
2024-10-08,"mirror, pull",,i tried to mirror the repo,in ,i wanted mirrors to be enabled,i didn't,No,Yes,,,Yes,,no,One to three (1 to 3) months ago,please enable mirrors,
2024-10-08,"danger, visibility",I never explicitly considered temporary visibility changes.,I wanted to make my repository temporarily private.,,,,Yes,Yes,,,Yes,,"No, everything looks very clear to me.",One to three (1 to 3) months ago,,
2024-10-08,"danger, transfer",,I was checking if a repo could be moved under the an organization,Transfer Repository,,,No,"Not easily, but I found it",,,Yes,,,Less than a month ago,,
2024-10-09,"sharing, opengraph, summary",,I was asking myself if an OpenGraph image setting would be available,"Next to avatar zone, I guess",The same as avatar (a browse file input),"I looked a Features section, but not with any hope!",No,No,:),,Yes,,Everything is ok. Juste the setting I was looking for don’t exist (at least I didn’t find it),Three months to a year (3 to 12 months) ago,"Not really. Thanks for your service, I’m glad it exists!",
2024-10-09,units,,"Was interested in seeing what options were available. I think I clicked the ""Add More"" button by ""Activity""",,,,No,,,,Yes,,,Three months to a year (3 to 12 months) ago,,
2024-10-09,"issues, defaultsort",Confirms an idea that I once had about persistent filters,"Yes, I was looking for a setting to define a default sort method for issue tracker.",Settings => Repository Units => Issues,"A selector to define a default sort method (Newest, Oldest, Recently updated,...)",Settings ⇒ Repository units ⇒ Issues,No,No,Settings ⇒ Repository units ⇒ Issues,,Yes,,,More than one year ago,,
2024-10-09,,,Initial setup.,Settings.,,,Yes,Yes,,,Yes,,,Less than a month ago,,
2024-10-09,"license, summary",,"I was looking for information about the license, but couldn't find it at a first glance (except on the file that describes it, but it requires me to click and open it). I think that having this information subtly displayed can improve the experience greatly. ","In this case, I wouldn't expect to find license information on the settings, I was just trying to explore in case I missed it elsewhere (quite possible). I know it's not what you are asking about, but I think scanning the top-level of the repository for a LICENSE or COPYING file to determine the license is probably best.",,,No,No,,,,,"The title ""Settings"" on the left hand side is not prominent enough and is easily confused with a navigation link to another submenu.",More than one year ago,,
2024-10-09,"units, releases, publicrelations, opengraph",,"I created a repository with some downloadable images oriented to low-code users, and I was looking for something similar to the release feature of the GitHub repos.",I am trying to figure out where I expected to find it. Maybe it should be in the left sidebar?,"As expected, It worked fine: I checked the Releases checkbox and MAGIC!",,Yes,Yes,,,Yes,,,Three months to a year (3 to 12 months) ago,"Well, now that you ask, I miss one feature terribly: a social section where one can upload that image that appears as a thumbnail when you share your project URL on social media.",
2024-10-10,units,,I am cleaning up a repo that I brought from GitHub to Codeberg.,I was looking to turn off wiki and projects. I found it in settings.,,,Yes,Yes,,,Yes,,,More than one year ago,,
2024-10-10,,,,,,,Yes,Yes,,,Yes,,,More than one year ago,love you,
2024-10-10,rename,"This user requests not showing Forgejo Actions if it is not ready. I ignored this suggestion, because I don't think it makes sense (would prevent users from playing with it and improving it)",to change the repository name,In the settings sections,Things are working great ! No suggestions to improve.,"Did not search, layout is clear.",Yes,Yes,,,Yes,,Nope,More than one year ago,"CI visibility should be clearer - Woodpecker is working, but Forgejo actions is also shown somewhere I think. If Forgejo actions is ready to be used, some end users can pilot it, and if its not ready then it should not be displayed in the user settings",
2024-10-10,"pages, meta",,Trying to use codeberg pages.,No idea.,"A button with ""enable codeberg pages for this repository"".","""Repo"".
Then searched the internet for info on how to find the setting.",No,No,Didn't I just answer this question dude?,,No,Are you repeating the questions on purpose to test my memory or something?,Yes. The setting didn't exist. It was more complicated to do (but it could be made an easy setting).,One to three (1 to 3) months ago,,
2024-10-10,webhook,,I wanted to check the webhook settings and if they have a particular setting I can toggle off.,Webhook settings,I've already proposed changes to forgejo regarding more fine-grained webhook event settings: https://codeberg.org/forgejo/forgejo/issues/3288,,No,Yes,,,No,"Have the option to set what particular events should trigger a new webhook POST request to be made (i.e. disable PR/Issue edits from sending a webhook request).
See https://codeberg.org/forgejo/forgejo/issues/3288",,More than one year ago,,
2024-10-10,description,,repository description,,,,Yes,Yes,,,Yes,,no confusion whatsoever. everything is it's right place,More than one year ago,,
2024-10-11,"danger, delete",,I wanted to delete a repository because I changed the name of the software before pushing any code.,,,,Yes,Yes,,,Yes,,,One to three (1 to 3) months ago,,
2024-10-11,"branch, default",,I was going to change the default branch,"Settings button on top right, then look for corresponding tab in settings menu","For example if I wanted to change the default branch, I could either go from main repository menu then click on ""x branches"" button then click on the arrows next to ""Default branch"", or from Settings -> Branches",Settings -> Branches -> Change Default branch -> select branch -> update -> profit...?,Yes,Yes,,,Yes,,,More than one year ago,looks pretty good right now. maybe some icons? little bit of eye candy,
2024-10-11,"units, releases",,I wanted to enable the release unit on a repository,Tag,,"Repository
Repository units",Yes,Yes,,,Yes,,,Less than a month ago,,
2024-10-11,"mirror, migrate",A way to reference the origin / canconical location of a repo was a feature request somewhere IIRC,I mirrored/forked someone else’s repository from GitHub and wanted to add a reference to the original repository.,Repository,I was thinking about changing the description but might also set the Website.,,Yes,Yes,,,Yes,,,More than one year ago,,
2024-10-11,"units, wiki, documentation, label",,General familiarization but looking for options relating to issue labels and adding documentation (similar to Github pages),"""Repository"" for labels, maybe a separate menu item for documentation?","Really like Github's option to point a repo-based URL at a folder in the repo containing the documentation.  Don't need an option to create/edit it in the UI as that's best handled in an external workflow and then committed to the repo for tracking, etc.","""Repository"", ""Repository Units""",Yes,"Not easily, but I found it",Repository Units -> Issues,"""Labels"" radio button on Issues page",,,"""Repository units"" is an odd term for features/functionality",One to three (1 to 3) months ago,"Adopting similar UI to Github - for example, issue labels - helps the transition from there (since that's probably where most users are coming from?) but its UI is equally confusing when you're not familiar with where to look for options.",
2024-10-11,topics,,"Wanted to add the ""translathon"" topic to Glitch (but then I realized it's on the ""Code"" tab)",Settings tab *AND* Code tab,"It kinda makes sense the topics are editable in the Code tab, but since I first looked in the Settings tab, it would make sense if you can ALSO edit the topics in the Settings as well. (I haven't checked if this feature already exists since I immediately opened the survey.)",Settings tab,No,Yes,,,Yes,,No.,More than one year ago,No.,
2024-10-11,description,,To change the repository description.,"In the ""Repository"" menu.",,,Yes,Yes,,,Yes,,No.,Less than a month ago,,
2024-10-11,mirror,,Mirror settings ,,,,Yes,Yes,,,No,,,Three months to a year (3 to 12 months) ago,,
2024-10-11,rename,,To rename a repo.,Whatever the main settings menu would be.,Renames a repo.,,Yes,Yes,,,Yes,,,More than one year ago,Nah.,
2024-10-11,permissions,,I wanted to add a collaborator.,Colaborators,Add a user by their username/tag/mail to be able to collaborate in the repository more easily,,Yes,Yes,,,Yes,,,Three months to a year (3 to 12 months) ago,It would be nice to have hints/info-boxes for beginners to make it easier to begin using codeberg without having worked with git in depth. ,
2024-10-11,rename,,I wanted to rename my repository.,The form to rename my repository.,Like it did. Change the form file content to the desired name and submit.,Just the settings button on the left.,Yes,Yes,,,Yes,,No,Less than a month ago,Great work. Thank you!,
2024-10-11,"units, mirror, actions",,I've looked for the mirror option because I had to setup the mirror for my repository,I would look for the mirror settings in the general menu,"I think in which category it might be in, and then check",,Yes,Yes,,,Yes,,,Three months to a year (3 to 12 months) ago,"Please make it easier to add actions (also please make it easier to migrate actions from GitHub to Codeberg, like the publish release action)",
2024-10-12,"permissions, branchprotection",,To check for settings to protect main branch - as we have now a team who has write access,yes,,,Yes,Yes,,,Yes,,,More than one year ago,,
2024-10-12,rename,,I want to change the name of the repo.,Exactly where it is today.,,,Yes,Yes,,,Yes,,,Three months to a year (3 to 12 months) ago,,
2024-10-12,"danger, delete, fork, contrast, accessibility",,"To delete a forked repository, due to the pull request not being able to be accepted",At the bottom of the first/main general page,"By prompting me if I'm actually sure I want to delete my repository after clicking the button, exactly as it does now. (Just that codeberg has horrible coloring/contrast, and so selecting/highlighting the repo name looked ugly)",,Yes,Yes,,,Yes,,"When the permanent delete button wasn't the last button, but instead above the archive button.",Three months to a year (3 to 12 months) ago,,
2024-10-12,units,Confusion very valid.,,,,,Yes,Yes,,,Yes,,"“Repository units” should rather be four individual pages for Overview, Issues, Pull Requests and Wiki, which can be accessed either via the tab on the left-hand side or via links below the overview. I was a little confused by the fact that you can reach the “Repository units” via four different links, but in the end they all end up on the same page.",More than one year ago,,
2024-10-12,,I do not understand what the sidebar would be used for.,"I was looking for a setting to enable a sidebar on the left side with the files while viewing code, like the UI used for pull requests. I first looked in my user settings, then here. ",,,"1. User Settings > Appearance
2. No appearance menu in the repo settings",No,No,"At first in my user settings under appearance, but as mentioned above I went into the repo settings because maybe something like that is there.",,Yes,,,Three months to a year (3 to 12 months) ago,"What I suggested above could be a good feature for the user settings (not for the repo settings), if anyone ever wants to implement that. ",
2024-10-12,"issues, labels",This is a very extreme example for the confusion about issue label management.,I wanted to see if I can add a custom label,"I tried tags, that doesn't look like it",A listing of the current labels and a box where I can type in the new label name and hit enter.,"After checking tags, I remembered that labels were at the account level, not the repo level",No,"Not easily, but I found it",In the repo settings menu,In the account settings menu,Yes,,"Yes. I still don't know what the Tags feature does, I just realized it wasn't what I was looking for. Also, I'm not going to take time now to look it up in the docs. ",More than one year ago,,
2024-10-12,"danger, archive",,archiving a repository,danger zone,"when i confirmed twice that i want to archive the repository, it will become read‑only",repository settings,Yes,Yes,,,Yes,,no confusion,Three months to a year (3 to 12 months) ago,not today,
2024-10-13,"units, projects, releases, templates",,To enable Projects and Releases,exactly where it is now,I would like to have the possibility to enable Projects and Releases in my template repo so I don't have to set this setting every time,,Yes,Yes,,,No,correlate issue labels and issue state with my project kanban board,no,Three months to a year (3 to 12 months) ago,,
2024-10-13,"permissions, invite",Interesting idea to invite people directly,I was looking to share access to a repository,The Collaborators menu,"I expected to be able to enter an email address to invite somebody to join Codeberg and then access the repository. Instead, I needed to ask them to create an account first.",,Yes,Yes,,,Yes,,,Less than a month ago,,
2024-10-13,"actions, bug",Hard to see what is going on here,"The automatic actions don't run any more, i was trying to figure out something",I expect to click everywhere,Well I don't even know why they stopped working since I didn't edit any settings in the meanwhile.,,No,No,,,Yes,,,More than one year ago,,
2024-10-13,"danger, delete",Lack of convenient mass-action for dangerous settings,I was removing orphaned repositories.,"Removal - at the very bottom, because it's the most dangerous option.","I would expect removal to work with just an OK confirmation. Typing the repository name again is very safe, but tiresome when there are a lot to delete.",,Yes,Yes,,,Yes,,"Nope, everything seems clear to me",More than one year ago,"I would like to propose a different solution to repository deletion confirmation. Right now I need to go through settings of every repository, and every time type its name over and over again. I think that it works nicer if you would be prompted for account password instead on a first deletion, and not prompted on every subsequent deletion. The prompt should appear again if lots of time passed or another option was used, something like that.

Overall, big thank you for your work on Codeberg and Forgejo.",
2024-10-13,"danger, archive",,Archiving the repo,Repository settings,,,Yes,Yes,,,Yes,,No,More than one year ago,,
2024-10-14,"permissions, branchprotection",,"Just to know more about the available settings. I would love to see some merge settings such as ""require approval of the Pull Request before merge""",Repository Units > Pull Request,"Do not let merge PR without some other colaborator of the repo (or selected reviewers) approve the PR. This also should be ""bypassable"" in the case of a reviewer not be available (i.e. went on vacation in  a company with only 2 devs)","Repository.
Repository Units > Overview.
Repository Units > Pull Request.
Collaborators.
",Yes,Yes,,,Yes,,,Less than a month ago,,
2024-10-14,"danger, archive, translation",,archiving a repo,general menu,repo is archived afterwards,,No,Yes,,,Yes,,"translation (German) is really bad sometimes (and often contains typos), but I know I could fix this in the weblate",More than one year ago,,
2024-10-14,"lfs, hints",,"I was looking for the LFS settings, as I would like to learn more about a) LFS in general, as b) if/how Forgejo/codeberg supports it.","I was looking for something like 'storage' or 'used space', but quickly saw it it directly in its own category.",I was not looking for a specific setting - more trying to get a general feel for what is in the LFS menu.,,No,Yes,,,Yes,,"Given I do not know too much about LFS yet, I was slightly confused about there not being any text. As a comparison, the webhooks menu has this helpful text ""Webhooks automatically make HTTP POST requests to a server when certain Forgejo events trigger. Read more in the webhooks guide."", along with a link to a guide. Perhaps something along those lines would be helpful for new users who - like me - would like to learn a bit more about LFS.

EDIT:
I did end up finding [this](https://docs.codeberg.org/git/using-lfs/) after looking for documentation. Perhaps something along these lines could be added to the LFS menu? I think a short sentence, similar to the Webhooks, along with a link to the proper documentation could help newcomers like myself.

Once again, thanks and best of luck with the survey :)",More than one year ago,"Nothing else to say, other than a heartfelt thank you to everyone putting in the work to build and improve codeberg and forgejo :)

Have a nice day/night!",
2024-10-14,error,A very special case. I don't think user action was necessary.,"I received message ""Git hooks of this repository seem to be broken. Please follow the documentation to fix them, then push some commits to refresh the status."", trying to fix this.",/settings/hooks,,,Yes,Yes,,,Yes,,"No, everything is fine. Thank you.",Three months to a year (3 to 12 months) ago,No,
2024-10-14,description,,I created the repo an hour ago and wanted to find a better descrition for it.,A repo descirption is not very specific. It is placed where i expected it: in settings head somewhere.,"Exactly as expected: enter text in a text field.
Surprisingly i was not thrown out because of exidentaly using vim-keybindings.","My use case is pretty simple: create a repo and commit. No collaboration. Usually only from 1 computer.
Not too much to set.",Yes,Yes,,,Yes,,"Not this time but before:
The repo-tags, that i think are very important, took me some time to understand and to get them saved.
But this time, as i said, it worked at first try. ",More than one year ago,"Thank you for creating codeberg!
I take codeberg as a political statement, as a sort of voting.
Keep it rising!",
2024-10-14,"labels, units","Although this was not yet tested after the rename from ""Repo units"" to ""Units"", it gives a nice explanation about why the term ""Unit"" might still be hard to understand.","was looking into how to add a new label, found it under issues/label",repository units/issues/label,,,No,"Not easily, but I found it",issues/label,repository units/issues/label,No,"""repository units"" is too ambiguous, since ""units"" feels like something to do with measurements",it would be nice that both the labels exist under the settings with a potential redirect and also under issues/label,More than one year ago,,
2024-10-15,magicrepos,"I do not know what they want to ""update"" here.","I wanted to update the special ""_cargo-index"" repository.","In the ""Repository"" tab.","I was looking for an ""update"" button.",,No,No,"In the ""Repository"" tab.",,No,"Please provide a way to update the special ""_cargo-index"" repository.",,Three months to a year (3 to 12 months) ago,,
2024-10-15,"units, disable, projects, packages",,"I wanted to disable tabs I don't use, like ""projects"" and ""packages"", it works fine.",,,,Yes,Yes,,,Yes,,"No, to be honest It's very straightforward.",Three months to a year (3 to 12 months) ago,"Nope, thanks for improving Forgejo :)",
2024-10-15,labels,,Wanted to add tags to the issue tracker.,"""Issues"" (see q4)","I expect to be able to add labels, rename them, categorise them, and select colours from a colour scheme. (Full power over colours is good, too, but you never end up with the same colours as the autogenerated ones, and I prefer the autogenerated colours even though I don't like the details.)","""Issues"" – but that wasn't there, so I checked ""Repository"", then remembered that the issue tracker is a modular component, so checked ""Repository units"", and it wasn't there either, so I returned to the Issues tab outside Settings, and there was a button called ""Labels"". Now I understand.",Yes,"Not easily, but I found it",Settings,Issues,Yes,,See q4,More than one year ago,"Conceptual simplicity is more important than the first-place-you-look property. The current design of labels settings etc tells me how it's implemented, so I will know where to look for non-basic wiki settings / page management now (in the Wiki tab, not in Settings). However, that's not to say it's an optimal design right now.",
2024-10-16,rename,,rename repo,the one I looked in which was the right one,it worked as expected,,Yes,Yes,,,Yes,,no,One to three (1 to 3) months ago,(:,
2024-10-16,description,,Change the description of the repository.,Under a 'general respository settings' section.,A text box with the repository's current description.,,Yes,Yes,,,Yes,,,More than one year ago,,
2024-10-16,,,CI/CD,,,,Yes,Yes,,,No,,,,,
2024-10-16,permissions,,To add a deploy key,"under ""Deploy Keys""",I expect it to open up a form into which i can paste the SSH key of the deploy host,Deploy Keys,Yes,Yes,,,Yes,,No,More than one year ago,,
2024-10-16,permissions,,To add a deploy key,"under ""Deploy Keys""",I expect it to open up a form into which i can paste the SSH key of the deploy host,Deploy Keys,Yes,Yes,,,Yes,,No,More than one year ago,,
2024-10-16,,,Just exploring,,,,Yes,,,,Yes,,,Three months to a year (3 to 12 months) ago,,
2024-10-16,mirror,,"To change the mirror settings, I changed my gitlab username and needed to update the url for my push repo, though I had to create new key, I would have preferred to be able to edit the url for my push repo directly, and maybe the username.",,,,Yes,Yes,,,Yes,,,Three months to a year (3 to 12 months) ago,,
2024-10-16,namespaces,,,,,,Yes,Yes,,,Yes,,,One to three (1 to 3) months ago,I would be nice to have the possiblity to group some repos into the same project,
2024-10-16,"arrogant-language, unicode-warnings",,"Yes. I'm curious, why these character warnings sometimes appear, and some times  not.  I did not find a setting.  So it's more of a lotto... some repos get it, some not.","""Repository"" ... as there is no more specific item ...","I do not expect that setting at all.  I expect those warnings to go away for good, to be honest.  They are childish and irritating for uninformed users.  They call it ""defacing"" in the wild....","""Repository"".  It wouldn't fit in any of the other sections. So I did not look any further.",No,No,"I did not expect to find them.  Just read about them in an issue that was closed 3 months ago.  So I thought the setting was there, but it is not.",,Yes,,,More than one year ago,"No. Settings page seems ok to me.  It's just the anoying character warnings ""feature"" that I cannot accept. See https://codeberg.org/Codeberg/Community/issues/1208 , https://codeberg.org/Codeberg/Community/issues/1350 to name just two. 
A switch to turn warnings on and off would make it even worse.  It would mean: I the user have controll about how my code is defaced in forked repositories on Codeberg.

Get rid of that ""feature"", please.  It's eating precious developer time and drive users away from Codeberg. ",
2024-10-17,"pulls, feature",sounds like a good idea,"- Not a setting necessarily. I was hoping to find a tab similar to GitHub's traffic stats, showing which urls have linked to the repo and how much traffic has arrived at the repo from each source. I headed to the settings tab to see if this was something I could enable.

- An update: I was looking for a setting to enable deletion of merged branches by default",,,,No,No,,,Yes,,,Less than a month ago,,
2024-10-17,"danger, delete",,To delete a repository.,,,,No,Yes,,,Yes,,"Not really, no",More than one year ago,,
2024-10-17,"danger, visibility",,set as Private,settings,,,Yes,Yes,,,Yes,,no,Three months to a year (3 to 12 months) ago,I like Codeberg. Smart and works properly. Setting up ssh keys was well-defined. Much prefer Codeberg to Github. I have to use Github for a Hugo site I host on Render though,
2024-10-17,"units, projects",,I saw that there is a kanban board in https://codeberg.org/Codeberg/Community/issues/694,I wanted a kanban board that was local to the repository. I found it outside in the organization though.,I expected to see my issues in the kanban board.,,No,"Not easily, but I found it",In the repository settings.,In the organization settings.,No,"I wish there was a kanban board for just the repository. And it shouldn't be named ""Projects""","Yes, the name of the tab ""Projects"" really didn't help. And I expected there to be a board that was local to just the repository.",One to three (1 to 3) months ago,That's all.,
2024-10-17,,,Setting up a new repo,,,,Yes,Yes,,,No,Just feels a little full - more tabs might be easier.,,More than one year ago,,
2024-10-17,,,,,,,No,Yes,,,Yes,,,Three months to a year (3 to 12 months) ago,,
2024-10-18,"units, issues, external",,Setting the issues unit to an external tracker,,,,,,,,,,,,,
2024-10-18,branch,,Was looking to delete a branch,In the branches menu,"Expected to get a simple list of branches with delete buttons, with a confirmation to make sure you don't accidentally delete anything you don't want to",,Yes,No,"As said above, in the branches menu",,No,"Again, would like to be able to delete branches from the branches menu",,Less than a month ago,,
2024-10-18,"danger, rename",,To change its name.,"""Repository""","As a checkbox, toggler or text box.",None.,Yes,Yes,,,Yes,,No,More than one year ago,Codeberg is just to damn good. Something that could improve it further would be updating the UI to something like the  Offsuit poker app.,
2024-10-18,"units, projects, webhook",,setting up a project,n/a,,,Yes,Yes,,,Yes,,Webhooks: Poor documentation provided. (Are placeholders in URLs possible at all - important for template projects and hooks for orgs.) What is the forgejo webhook in content? signature - how is this done? Github like?,Less than a month ago,,
2024-10-18,"danger, delete",,deleting repo,,,,Yes,Yes,,,Yes,,,More than one year ago,,
2024-10-18,rename,,"I wanted to rename a repo, to include the org name, as it is a local fork",right where it was,exactly how it did,,Yes,Yes,,,Yes,,,Three months to a year (3 to 12 months) ago,Forgejo is so intuitive! thanks a lot!,
2024-10-19,,"the inconsistency with the error is a bug. I am not sure what they mean by ""link or menu"", though.",,,,,,,,,,,"it's impossible to tell which tab is a link or menu, even though i have all links underlined on this device.

for some reason the ""repository units"" menu has no "">"", while the ""actions"" menu does",More than one year ago,,
2024-10-19,permissions,,Adding a collaborator,Collaborators,"An editable table of collaborators/roles, specifying where does their role come from (manually added to this repo? Have some role in the corresponding org? Are the repo owner?)",Collaborators,Yes,Yes,,,Yes,,,More than one year ago,"It is clean and minimal, unlike GitH*b's repository settings, which are so many and all over the place. Nice!",
2024-10-19,"units, packages, defaults, meta",,"I wanted to enable the package repository. While there, I also set a bunch of defaults for e.g. merge style that I want all my repositories to share but yet it gets set to some weird site-wide default each and every time I create a new repo.","In the Settings _somewhere_ yet it apparently moved to the tab bar (where it is probably better located, but you could've added it as a second way to change the settings or at least point to it for users that are used to the old way forgejo did it)",you can enable stuff. surprise.,,Yes,"Not easily, but I found it",see 2.,see 2. (FUCK I HATE ISSUE TEMPLATES AND THIS STUPID FORM ISN'T ANY BETTER),No,Please give me the option to set default settings for e.g. merge settings that apply to every new repository I create. Site-wide defaults make like 0 sense.,,More than one year ago,,
2024-10-19,rename,,I have to change the repository name,"I think it is in the right place, at Repository Settings, Basic Settings.","It seems a good a approach to have similar settings grouped together, so we can batch save changes.","Repository Settings, Basic Settings.",No,Yes,,,Yes,,It's good enough for my needs.,More than one year ago,,
2024-10-19,labels,The remark about the sidebar heading should be considered,I wanted to add an issue label.,Repository units -> Issues,A list of labels which already exist with the option to add new ones and delete existing ones (like the actual overviews of labels which already exists).,"Repository, Repository units, Collaborators, Branches, Tags",No,"Not easily, but I found it",Repository units -> Issues,"outside the settings, Issue tracker, Labels",Yes,,I expected the labels to also be listed in the repository settings when using the forgejo builtin issue tracker. ,More than one year ago,"The ""Settings"" header in the sidebar probably shouldn't have the same color as the rest of the clickable menus (--color-secondary) to better communicate that it is only a header.",
2024-10-20,"units, releases, templates",,"Enable repository feature ""Releases""",Repository-Einheiten,,,Yes,"Not easily, but I found it",,,Yes,,"I first looked into the organization settings, because I created several repositories in the same organization. I expected that I could set repository defaults. I even asked on Mastodon (but got no answer) where to find the Releases checkbox. I had a look into the online help, where ""Releases"" is described, and was confused because I didn't find it in the organization settings.",Less than a month ago,"I found the setting ""zu einer Vorlage machen"" in repository settings. Is this the default repo settings feature I was looking for? I would expect such defaults in the organization settings or even in my user settings. But a ""template repository"" that works as a default provider is also a good solution. It should maybe made be more prominent, maybe if the organization has no repos yet, there could be a hint to create or use a template repo.",
2024-10-20,"branchprotection, security",,"checking the protection settings, so I can use CI on Pull Requests without someone being able to extract secrets.",,"I would like to have a setting, that makes it impossible for users that are not repository administrators to change ci pipelines",,Yes,Yes,,,No,Make it clearer how the access control settings work. Explain how it is determined if specific things are allowed or not,The options for branch protection overwhelmed me and I didn't completely understand what setting does what and how settings work together. For example I don't understand what the file allow/disallow lists do and what happens with filed that are in neither list.,More than one year ago,,
2024-10-20,,,,,,,Yes,Yes,,,Yes,,,One to three (1 to 3) months ago,,
2024-10-20,branchprotection,"There were two options for this: Let the rule apply to a different branch or disable enforcing the rule for repo admins. Apparently, both were not intuitive to this user.",temporarily unprotect a main branch in order to force push a commit correction,repository or branches,I imagine a way to turn protection off temporarily and turn it back on afterward,"repository then branches, found it",Yes,Yes,,,Yes,,I was not comfortable *deleting* the protection rule in order to turn it off. I wanted to turn it off but then just turn it back on. It was really uncomfortable having to think through all the setting for a new replacement rule after deleting when I just wanted temporary off-on.,More than one year ago,,
2024-10-20,branches,,I'm trying to change the default branch of the repo,"Under ""Repository"", since there is no ""Branches"" menu (only ""Tags"")",I specify a new branch to become the new default branch,"I looked through all of them except ""LFS"". I think the reason I don't see ""Branches"" is because I haven't actually pushed any branches to the repo yet.",No,No,"""Branches"", if that menu exists",,No,I'm trying to change the default branch of the repo. I'm pretty sure I've done this before on another repo of mine. I will try pushing a branch and looking for the setting again,"Yes I wondered where the ""Branches"" menu was. But it's probably not shown because no branches have yet been pushed to the repo.",More than one year ago,Generally speaking they are not too bad to work with.,
2024-10-20,units,,Continuous integration,top-level,,"Deploy keys, repository units(? – In German it's called ""Repository-Einheiten"", which is not ideal)",No,"Not easily, but I found it",top-level,Repository units,No,"I think the top-level repository units that are in Repository Units > Overview should have their own top-level entry already in the menu. Maybe add an ""Foobar (deactivated)"" to the menu entry, but in general I think, that top-level menus should not appear/disappear, but have a fixed spot.",,More than one year ago,It's fine,just not perfect.
