{
  "form": {
    "1": {
      "opts": {
        "text": "Thank you for your interest in improving Forgejo, the software platform powering Codeberg.org. Your feedback about the repository settings will help us make educated decisions in the development of Forgejo, without using tracking technologies like deployed on other competing platforms.\n\nYour feedback will be transparently available to the public. Please keep this in mind and do not submit sensitive information. If you would like to add something privately or if you have questions, feel free to send an email to otto@codeberg.org.\n\nIf you would like to learn more about Forgejo's quest to learn more about users, head over to the [user-research repository](https://codeberg.org/forgejo/user-research/).\n\nThank you very much!\n\nKind Regards  \nOtto Richter  \nMember of the Forgejo user research team"
      },
      "type": "md"
    },
    "1772tefnb9r": {
      "opts": {
        "values": [
          {
            "uid": "4p0lsvkhr8s",
            "v": "Yes"
          },
          {
            "uid": "786pjr89qpa",
            "v": "Not easily, but I found it"
          },
          {
            "uid": "26sdrqvolqh",
            "v": "No"
          }
        ]
      },
      "q": "Did you easily find the settings you were looking for?",
      "type": "radio"
    },
    "19chbbbjnfa": {
      "opts": {
        "questions": [
          "7c163dboue4"
        ],
        "when": [
          [
            {
              "is": 1,
              "q": "1772tefnb9r",
              "uid": "740s0j0epci",
              "v": "Not easily, but I found it"
            }
          ]
        ]
      },
      "type": "section"
    },
    "2ftpntoi53p": {
      "opts": {
        "values": [
          {
            "uid": "4p0lsvkhr8s",
            "v": "Less than a month ago"
          },
          {
            "uid": "786pjr89qpa",
            "v": "One to three (1 to 3) months ago"
          },
          {
            "uid": "5uoke9rtcg2",
            "v": "Three months to a year (3 to 12 months) ago"
          },
          {
            "uid": "6gtivotqfcs",
            "v": "More than one year ago"
          }
        ]
      },
      "q": "When did you start using Forgejo or Codeberg?",
      "type": "radio"
    },
    "3o1o3tmhkc3": {
      "opts": {
        "maxLength": 5000,
        "required": false
      },
      "q": "If you are looking for a specific setting, how do you expect it to work? Feel free to give a brief description of what you expect.",
      "type": "textarea"
    },
    "4olsol3g24f": {
      "opts": {
        "maxLength": 5000,
        "required": false
      },
      "q": "Please elaborate on the changes you would still like to do to your repository settings?",
      "type": "textarea"
    },
    "5n2bs3d7of3": {
      "opts": {
        "text": "Thank you for your participation. We are looking forward to reading your responses and using your feedback to improve Forgejo."
      },
      "type": "md"
    },
    "5vflvcnub7j": {
      "opts": {
        "required": false,
        "values": [
          {
            "uid": "4p0lsvkhr8s",
            "v": "Yes"
          },
          {
            "uid": "786pjr89qpa",
            "v": "No"
          }
        ]
      },
      "q": "Did you make changes to the repository settings today?",
      "type": "radio"
    },
    "6kitoiq5kq1": {
      "opts": {
        "questions": [
          "eggtqk9omm"
        ],
        "when": [
          [
            {
              "is": 0,
              "q": "1772tefnb9r",
              "uid": "112diifdppm",
              "v": "Yes"
            }
          ]
        ]
      },
      "type": "section"
    },
    "6qv5p5la9uv": {
      "opts": {
        "maxLength": 5000,
        "required": false
      },
      "q": "Did you experience any moment of confusion when navigating the repository settings? Please elaborate.",
      "type": "textarea"
    },
    "75shi602dlm": {
      "opts": {
        "type": "text"
      },
      "q": "If you are looking for a specific setting, where (in which menu) do you expect to find it?",
      "type": "input"
    },
    "7c163dboue4": {
      "opts": {
        "type": "text"
      },
      "q": "Where did you find it instead?",
      "type": "input"
    },
    "7mit8unb2jh": {
      "opts": {
        "values": [
          {
            "uid": "4p0lsvkhr8s",
            "v": "Yes"
          },
          {
            "uid": "786pjr89qpa",
            "v": "No"
          }
        ]
      },
      "q": "Are you satisfied with your repository settings in the current state?",
      "type": "radio"
    },
    "7rvnieaud70": {
      "opts": {
        "maxLength": 5000,
        "required": false
      },
      "q": "Why did you visit the repository settings today? If there is a specific setting you are looking for, please list it here.",
      "type": "textarea"
    },
    "eggtqk9omm": {
      "opts": {
        "type": "text"
      },
      "q": "Where did you expect to find the setting?",
      "type": "input"
    },
    "hhvu443tq9": {
      "opts": {
        "maxLength": 1000
      },
      "q": "If you search(ed) for your setting, please list the menus that you opened, in order.",
      "type": "textarea"
    },
    "i32io19v4j": {
      "opts": {
        "questions": [
          "4olsol3g24f"
        ],
        "when": [
          [
            {
              "is": 1,
              "q": "7mit8unb2jh",
              "uid": "2938i5vli1q",
              "v": "No"
            }
          ]
        ]
      },
      "type": "section"
    },
    "pqmpp8q3dd": {
      "opts": {
        "maxLength": 1000
      },
      "q": "Is there anything else you'd like to tell us about the repository settings?",
      "type": "textarea"
    }
  },
  "order": [
    "1",
    "7rvnieaud70",
    "75shi602dlm",
    "3o1o3tmhkc3",
    "hhvu443tq9",
    "5vflvcnub7j",
    "1772tefnb9r",
    "6kitoiq5kq1",
    "19chbbbjnfa",
    "7mit8unb2jh",
    "i32io19v4j",
    "6qv5p5la9uv",
    "2ftpntoi53p",
    "pqmpp8q3dd",
    "5n2bs3d7of3"
  ],
  "version": 1
}